{
    "webpack_includes": ["./node_modules/@superskrypt/sutils"],
    "envs": {
        "tst": {
            "host": "",
            "user": "",
            "path": ""
        },
        "prod": {
            "host": "",
            "user": "",
            "path": ""
        }
    }
}